"Store","Diesel"
"Pilot Travel Center #1","3.099"
"Pilot Travel Center #2","2.659"
"Pilot Travel Center #3","2.559"
"Pilot Travel Center #4","2.659"
"Pilot Travel Center #6","2.599"
"Pilot Travel Center #8","2.499"
"Pilot Travel Center #9","2.599"
"Pilot Travel Center #11","2.699"
"Pilot Travel Center #12","2.599"
"Pilot Travel Center #13","2.559"
"Pilot Travel Center #14","2.559"
"Pilot Travel Center #15","2.659"
"Pilot Travel Center #16","2.299"
"Pilot Travel Center #17","2.599"
"Pilot Travel Center #21","2.639"
"Pilot Travel Center #23","2.659"
"Pilot Travel Center #24","2.679"
"Pilot Travel Center #26","2.659"
"Pilot Travel Center #28","2.379*"
"Pilot Travel Center #29","2.499*"
"Pilot Travel Center #30","2.399*"
"Pilot Travel Center #31","2.399*"
"Pilot Travel Center #34","2.399*"
"Pilot Travel Center #35","2.299*"
"Pilot Travel Center #36","2.359*"
"Pilot Travel Center #37","2.359*"
"Pilot Travel Center #39","2.399"
"Pilot Travel Center #40","2.599"
"Pilot Travel Center #41","2.459"
"Pilot Travel Center #43","2.559"
"Pilot Travel Center #44","2.269"
"Pilot Travel Center #46","2.479"
"Pilot Travel Center #47","2.479"
"Pilot Travel Center #48","2.479"
"Pilot Travel Center #49","2.599"
"Pilot Travel Center #50","2.559"
"Pilot Travel Center #51","2.479"
"Pilot Travel Center #52","2.459"
"Pilot Travel Center #53","2.449"
"Pilot Travel Center #56","2.359"
"Pilot Travel Center #57","2.639"
"Pilot Travel Center #58","2.759"
"Pilot Travel Center #60","2.459"
"Pilot Travel Center #61","2.359"
"Pilot Travel Center #62","2.499"
"Pilot Travel Center #63","2.299"
"Pilot Travel Center #64","2.459"
"Pilot Travel Center #65","2.659"
"Pilot Travel Center #66","2.499"
"Pilot Travel Center #67","2.459"
"Pilot Travel Center #68","2.759"
"Pilot Travel Center #69","2.539"
"Pilot Travel Center #71","2.659"
"Pilot Travel Center #72","2.759"
"Pilot Travel Center #73","2.649"
"Pilot Travel Center #75","2.489"
"Pilot Travel Center #76","2.499"
"Pilot Travel Center #77","2.599"
"Pilot Travel Center #79","2.459"
"Pilot Travel Center #4555","2.499"
"Pilot Travel Center #81","3.159"
"Pilot Travel Center #4556","2.649"
"Pilot Travel Center #82","2.459"
"Pilot Travel Center #4557","2.499"
"Pilot Travel Center #4558","2.459"
"Pilot Travel Center #4559","2.499"
"Pilot Travel Center #4560","2.559"
"Pilot Travel Center #4561","2.649"
"Pilot Travel Center #87","2.589"
"Pilot Travel Center #4562","2.659"
"Pilot Travel Center #88","2.599"
"Flying J #4563","3.059"
"Pilot Travel Center #89","2.559"
"Pilot Travel Center #90","2.599"
"Pilot Travel Center #91","2.759"
"Pilot Travel Center #4566","2.299"
"Pilot Travel Center #92","2.649"
"Pilot Travel Center #4567","2.259"
"Pilot Travel Center #4568","2.339"
"Pilot Travel Center #94","2.559"
"Pilot Travel Center #4569","2.519"
"Pilot Travel Center #95","2.649"
"Pilot Travel Center #96","2.599"
"Flying J #97","2.599"
"Pilot Travel Center #4576","2.519"
"Pilot Thomas Cardlock #102","2.859"
"Pilot Travel Center #4578","2.299"
"Pilot Travel Center #4579","2.459"
"Pilot Travel Center #4580","2.359"
"Pilot Food Mart #106","2.459"
"Pilot Travel Center #4581","2.399"
"Pilot Thomas Cardlock #108","2.959"
"Pilot Thomas Cardlock #109","2.959"
"Pilot Travel Center #4584","2.499"
"Pilot Travel Center #114","2.459"
"Pilot Travel Center #118","2.459"
"Pilot Travel Center #4596","2.459"
"Pilot Travel Center #4597","2.459"
"Pilot Travel Center #4598","2.459"
"Pilot Travel Center #4599","2.459"
"Pilot Travel Center #130","2.699"
"Pilot Travel Center #131","2.539"
"Pilot Food Mart #132","2.459"
"Pilot Travel Center #133","2.459*"
"Pilot Travel Center #134","2.499"
"Pilot Travel Center #137","2.959"
"Pilot Fuel Center #140","2.959"
"Pilot Travel Center #141","2.859"
"Pilot Travel Center #144","2.659"
"Pilot Travel Center #4619","2.499"
"Pilot Travel Center #145","2.599"
"Pilot Travel Center #146","2.799"
"Pilot Travel Center #147","2.859"
"Pilot Travel Center #4622","2.539"
"Pilot Travel Center #149","2.439"
"Pilot Travel Center #150","2.499"
"Pilot Travel Center #151","2.939"
"Pilot Travel Center #152","2.399*"
"Pilot Travel Center #154","2.959"
"Pilot Travel Center #156","2.639"
"Pilot Travel Center #157","2.299"
"Pilot Travel Center #159","2.699"
"Pilot Travel Center #163","2.459"
"Pilot Travel Center #164","2.499"
"Pilot Travel Center #165","2.499"
"Pilot Travel Center #167","2.459"
"Pilot Travel Center #4642","2.499"
"Pilot Travel Center #168","2.959"
"Pilot Travel Center #171","2.459"
"Pilot Travel Center #174","2.639"
"Pilot Travel Center #4649","2.499"
"Pilot Travel Center #4651","2.559"
"Pilot Travel Center #179","2.399"
"Pilot Travel Center #180","2.659"
"Pilot Travel Center #4656","2.499"
"Pilot Travel Center #190","2.739"
"Pilot Travel Center #192","2.659"
"Pilot Travel Center #195","2.459*"
"Pilot Travel Center #196","2.459"
"Pilot Travel Center #198","2.339*"
"Pilot Travel Center #199","2.499"
"Pilot Travel Center #200","2.749"
"Pilot Travel Center #206","2.259"
"Pilot Travel Center #208","2.439"
"Pilot Travel Center #209","2.599"
"Pilot Travel Center #210","2.539"
"Pilot Travel Center #211","2.659"
"Pilot Travel Center #213","2.599"
"Pilot Travel Center #219","2.459"
"Separated Gas Island #220","2.799"
"Pilot Travel Center #222","2.799"
"Pilot Travel Center #224","2.459"
"Pilot Travel Center #226","2.459"
"Pilot Travel Center #231","2.459"
"Pilot Travel Center #232","2.599*"
"Pilot Travel Center #233","2.499*"
"Pilot Travel Center #234","2.499"
"Pilot Travel Center #236","2.599"
"Pilot Travel Center #237","3.059"
"Pilot Travel Center #238","2.429"
"Pilot Travel Center #239","2.559"
"Pilot Travel Center #240","2.459"
"Pilot Food Mart #241","2.499"
"Pilot Travel Center #242","2.359*"
"Pilot Travel Center #243","2.759"
"Pilot Travel Center #6955","2.639"
"Pilot Travel Center #245","3.059"
"Pilot Travel Center #247","2.459*"
"Pilot Travel Center #249","2.499"
"Pilot Travel Center #252","2.329"
"Pilot Travel Center #253","2.399"
"Pilot Travel Center #254","2.599"
"Pilot Travel Center #255","2.859"
"Pilot Travel Center #256","2.539"
"Pilot Travel Center #257","2.659"
"Pilot Travel Center #258","2.499"
"Pilot Travel Center #259","2.199"
"Pilot Travel Center #260","2.699"
"Pilot Travel Center #261","2.559"
"Pilot Travel Center #265","2.459"
"Pilot Travel Center #266","2.699"
"Pilot Travel Center #6978","2.699"
"Pilot Travel Center #267","2.559"
"Pilot Travel Center #268","2.559"
"Pilot Travel Center #270","2.459"
"Pilot Travel Center #271","2.399*"
"Pilot Travel Center #274","2.459"
"Pilot Travel Center #275","2.759"
"Pilot Travel Center #278","2.539"
"Pilot Travel Center #6990","2.599"
"Pilot Travel Center #279","2.699"
"Pilot Travel Center #280","2.739"
"Pilot Travel Center #281","2.559"
"Pilot Travel Center #282","2.799"
"Pilot Travel Center #284","2.679"
"Pilot Travel Center #6996","2.599"
"Pilot Travel Center #285","2.599"
"Pilot Travel Center #286","2.599"
"Pilot Travel Center #287","2.559"
"Pilot Travel Center #289","2.559"
"Pilot Travel Center #290","2.859"
"Pilot Travel Center #293","2.649"
"Pilot Travel Center #294","2.699"
"Pilot Travel Center #296","2.639"
"Pilot Travel Center #297","2.399*"
"Pilot Travel Center #298","3.099"
"Pilot Travel Center #299","2.459"
"Pilot Travel Center #300","2.459"
"Pilot Travel Center #301","2.359"
"Pilot Travel Center #302","2.489"
"Pilot Travel Center #303","2.529"
"Flying J #304","2.529*"
"Flying J #305","2.479"
"Pilot Travel Center #306","2.399"
"Pilot Travel Center #307","2.899"
"Pilot Travel Center #308","2.659"
"Pilot Travel Center #309","2.639"
"Pilot Travel Center #310","2.299"
"Pilot Travel Center #311","3.159"
"Pilot Travel Center #312","2.499"
"Pilot Travel Center #313","2.499"
"Pilot Travel Center #316","2.479"
"Pilot Travel Center #317","2.359"
"Pilot Travel Center #318","2.459*"
"Pilot Travel Center #319","2.459"
"Pilot Travel Center #321","2.539"
"Pilot Travel Center #322","2.959"
"Pilot Travel Center #324","2.599"
"Road Ranger #326","2.559"
"Pilot Travel Center #328","2.599"
"Pilot Travel Center #329","2.429"
"Pilot Travel Center #330","2.359"
"Pilot Travel Center #331","2.539"
"Pilot Travel Center #332","2.499"
"Pilot Travel Center #335","2.499"
"Pilot Travel Center #336","2.999"
"Pilot Travel Center #337","2.499"
"Pilot Travel Center #338","2.459"
"Pilot Travel Center #339","2.459*"
"Pilot Travel Center #340","2.699"
"Pilot Travel Center #341","2.859"
"Pilot Travel Center #343","2.999"
"Pilot Travel Center #346","2.399"
"Road Ranger #347","2.559"
"Pilot Travel Center #348","3.059"
"Pilot Travel Center #350","2.999"
"Pilot Dealer #351","2.459"
"Pilot Travel Center #352","2.559"
"Pilot Travel Center #353","2.479"
"Pilot Travel Center #354","2.459"
"Pilot Travel Center #356","2.479"
"Pilot Travel Center #358","2.599"
"Pilot Travel Center #360","2.599"
"Pilot Travel Center #362","2.379*"
"Pilot Travel Center #363","2.659"
"Pilot Travel Center #365","2.959"
"Pilot Travel Center #366","2.399"
"Pilot Travel Center #367","2.299"
"Pilot Travel Center #368","2.459"
"Pilot Travel Center #369","2.499"
"Pilot Travel Center #370","3.159"
"Pilot Travel Center #372","2.959"
"Pilot Travel Center #373","2.399"
"Pilot Travel Center #374","2.599"
"Pilot Travel Center #375","2.499"
"Pilot Travel Center #377","2.499"
"Road Ranger #378","2.659"
"Pilot Travel Center #380","2.799"
"Pilot Travel Center #381","2.799"
"Pilot Travel Center #384","2.559"
"Pilot Travel Center #385","2.459"
"Pilot Travel Center #386","2.599*"
"Pilot Travel Center #387","2.859"
"Pilot Travel Center #388","2.339"
"Pilot Travel Center #390","2.459*"
"Pilot Travel Center #391","2.539*"
"Pilot Travel Center #392","2.479"
"Pilot Travel Center #393","2.639"
"Pilot Travel Center #394","3.059"
"Pilot Travel Center #396","2.499"
"Pilot Travel Center #398","2.659"
"Pilot Travel Center #399","2.479"
"Pilot Travel Center #402","2.659"
"Pilot Travel Center #403","2.459"
"Pilot Travel Center #404","2.459"
"Pilot Travel Center #405","2.659"
"Pilot Travel Center #406","2.459"
"Pilot Travel Center #407","2.399"
"Pilot Travel Center #408","2.499"
"Pilot Travel Center #409","2.449"
"Pilot Travel Center #411","2.459"
"Pilot Travel Center #412","2.459"
"Pilot Travel Center #413","2.479"
"Pilot Travel Center #415","2.599"
"Pilot Travel Center #416","2.659"
"Pilot Travel Center #417","2.499"
"Pilot Travel Center #420","2.659"
"Pilot Travel Center #421","2.459"
"Pilot Travel Center #422","2.539"
"Pilot Travel Center #424","2.649"
"Pilot Travel Center #425","2.599"
"Pilot Travel Center #428","2.499"
"Pilot Travel Center #429","2.299"
"Pilot Travel Center #430","2.599"
"Pilot Travel Center #431","2.359"
"Pilot Travel Center #432","2.199"
"Pilot Travel Center #433","2.259"
"Pilot Travel Center #434","2.239"
"Pilot Travel Center #435","2.499"
"Pilot Travel Center #436","2.499"
"Pilot Travel Center #437","2.459"
"Pilot Travel Center #438","2.479"
"Pilot Travel Center #439","2.599"
"Pilot Travel Center #440","2.559"
"Pilot Travel Center #441","2.559"
"Pilot Travel Center #442","2.359"
"Pilot Travel Center #443","2.339"
"Pilot Travel Center #444","2.399*"
"Pilot Travel Center #445","2.399*"
"Pilot Travel Center #446","2.379*"
"Pilot Travel Center #447","2.539*"
"Pilot Travel Center #448","2.399*"
"Pilot Travel Center #449","2.599"
"Pilot Travel Center #453","2.299"
"Pilot Travel Center #454","2.599"
"Pilot Travel Center #455","2.559"
"Pilot Travel Center #457","2.599"
"Pilot Travel Center #458","2.559"
"Pilot Travel Center #459","2.369"
"Pilot Travel Center #460","2.459"
"Flying J #461","1.099"
"Flying J CAN Dealer #463","1.129"
"Pilot Travel Center #467","2.459"
"Pilot Travel Center #468","2.399"
"Pilot Travel Center #469","2.699"
"Flying J #470","2.499"
"Pilot Travel Center #471","2.599"
"Pilot Travel Center #472","2.299"
"Pilot Travel Center #473","2.459"
"Pilot Travel Center #474","2.799"
"Pilot Travel Center #475","2.559"
"Pilot Travel Center #476","2.399"
"Flying J #477","2.229"
"Pilot Travel Center #478","2.539*"
"Pilot Travel Center #481","2.459"
"Pilot Travel Center #482","2.499"
"Pilot Travel Center #483","2.599"
"Pilot Travel Center #485","2.839"
"Pilot Travel Center #486","2.259"
"Flying J #488","2.389"
"Flying J #489","2.459"
"Pilot Fuel Center #490","2.699"
"Pilot Travel Center #491","2.399"
"Pilot Travel Center #492","2.399"
"Flying J #493","2.519"
"Pilot Travel Center #494","2.799"
"Pilot Travel Center #495","2.399"
"Pilot Travel Center #496","2.559"
"Pilot Travel Center #497","2.529"
"Pilot Travel Center #498","2.399"
"Pilot Travel Center #500","2.649"
"Pilot Travel Center #503","2.799"
"Pilot Travel Center #504","2.459*"
"Flying J US Dealer #505","2.799"
"Pilot Dealer #506","2.299"
"Flying J US Dealer #507","2.199"
"Pilot Dealer #508","2.599"
"Flying J US Dealer #509","2.839"
"Flying J US Dealer #510","2.799"
"Flying J US Dealer #511","2.559"
"Road Ranger #512","2.559"
"Flying J US Dealer #513","2.899"
"Thorntons #514","2.559"
"Road Ranger #515","2.599"
"All American #516","3.059"
"Pilot Travel Center #517","3.059"
"Flying J #518","3.059"
"The Pantry #519","2.559"
"Road Ranger #520","2.459"
"Pilot Dealer #522","3.059"
"Road Ranger #523","2.599"
"Pilot Dealer #524","2.399"
"Road Ranger #525","2.559"
"Road Ranger #526","2.499"
"Road Ranger #528","2.499"
"Road Ranger #529","2.499"
"Road Ranger #530","2.559"
"Road Ranger #531","2.399*"
"Road Ranger #532","2.559"
"Road Ranger #533","2.439"
"Road Ranger #534","2.599"
"Road Ranger #535","2.599"
"Road Ranger #536","2.559"
"Road Ranger #537","2.599"
"Road Ranger #538","2.499"
"Road Ranger #539","2.559"
"Road Ranger #540","2.559"
"Road Ranger #541","2.599"
"Road Ranger #542","2.359*"
"Road Ranger #543","2.499"
"Road Ranger #544","2.559"
"Road Ranger #546","2.399*"
"Road Ranger #547","2.439"
"Flying J US Dealer #549","2.599"
"Flying J #550","2.599"
"Flying J US Dealer #551","2.499"
"Flying J #552","2.359"
"Flying J #553","2.659"
"Flying J #554","2.399"
"Flying J US Dealer #555","3.099"
"Pilot Dealer #556","2.459"
"Pilot Travel Center #557","2.699"
"Pilot Travel Center #559","2.659"
"Pilot Travel Center #568","2.389"
"Flying J #571","2.359"
"Flying J #572","2.399"
"Pilot Travel Center #575","2.659"
"Flying J #576","2.559"
"Road Ranger #579","2.499"
"Flying J #580","2.659"
"Pilot Travel Center #581","2.559"
"Pilot Travel Center #583","2.939"
"Flying J #584","2.599*"
"Pilot Travel Center #586","2.399"
"Pilot Travel Center #589","2.659"
"Pilot Travel Center #590","2.539"
"Pilot Travel Center #592","2.659"
"Pilot Travel Center #593","2.599"
"Pilot Travel Center #594","2.599"
"Pilot Travel Center #595","2.499"
"Pilot Travel Center #596","2.559"
"Pilot Travel Center #597","2.499"
"Pilot Travel Center #599","2.759"
"Flying J #601","2.499"
"Flying J #602","2.559"
"Flying J #603","2.499"
"Flying J #604","2.499"
"Flying J #605","2.599"
"Flying J #606","2.359"
"Flying J #607","2.299"
"Flying J #608","2.599"
"Flying J #609","2.559"
"Flying J #610","2.659"
"Flying J #611","2.369"
"Flying J #612","2.559"
"Flying J #613","2.799"
"Flying J #614","2.799"
"Flying J #616","2.959"
"Flying J #617","2.959"
"Flying J #618","2.959"
"Flying J #619","2.479"
"Flying J #620","3.059"
"Flying J #621","2.499"
"Flying J #622","2.599"
"Flying J #623","2.599"
"Flying J #624","2.649"
"Flying J #625","2.599"
"Flying J #626","2.759"
"Flying J #627","2.659"
"Flying J #628","2.499"
"Flying J #630","2.559"
"Flying J #631","2.649"
"Flying J #632","2.459"
"Flying J #633","2.659"
"Flying J #634","2.499"
"Flying J #636","2.559"
"Flying J #637","2.559"
"Flying J #638","2.999"
"Flying J #639","2.959"
"Flying J #640","2.799"
"Flying J #641","2.899"
"Flying J #642","2.499"
"Flying J #643","2.499"
"Flying J #644","2.599"
"Flying J #645","2.499"
"Flying J #646","2.559"
"Flying J #647","2.539*"
"Flying J #649","2.459*"
"Flying J #650","2.399*"
"Flying J #652","2.359*"
"Flying J #653","2.399*"
"Flying J #655","2.329*"
"Flying J #656","2.359*"
"Flying J #657","2.399"
"Flying J #658","2.599"
"Flying J #659","2.459"
"Flying J #660","2.459"
"Flying J #661","2.479"
"Flying J #662","2.599"
"Flying J #663","2.459"
"Flying J #664","2.539"
"Flying J #665","2.499"
"Pilot Travel Center #666","2.599"
"Flying J #667","2.659"
"Flying J #668","2.799"
"Flying J #669","2.359"
"Flying J #671","2.359"
"Flying J #672","2.459"
"Flying J #673","2.439"
"Flying J #674","2.299"
"Flying J #675","2.399"
"Flying J #676","2.399"
"Flying J #677","2.659"
"Flying J #678","2.599"
"Flying J #682","2.639"
"Flying J #683","2.599"
"Flying J #684","2.559"
"Flying J #685","2.399"
"Flying J #686","2.459"
"Flying J #687","2.429"
"Flying J #688","2.399"
"Flying J #689","2.559"
"Flying J #690","2.459"
"Flying J #691","2.539"
"Flying J #692","2.859"
"Flying J #693","2.799"
"Flying J #694","2.659"
"Flying J #695","2.599"
"Flying J #696","2.559"
"Flying J #697","2.559"
"Flying J #698","2.299"
"Flying J #699","2.599"
"Flying J #700","2.599"
"Flying J #701","2.229"
"Flying J #702","2.259"
"Flying J #703","2.459"
"Flying J #704","2.359"
"Flying J #705","2.499"
"Flying J #706","2.199"
"Flying J #707","2.999"
"Flying J #708","3.059"
"Flying J #709","3.099"
"Flying J #710","3.159"
"Flying J #711","2.299"
"Flying J #712","2.399"
"Flying J #713","2.499"
"Flying J #714","2.259"
"Mr. Fuel #715","2.279"
"Flying J #716","2.399"
"Mr. Fuel #717","2.399"
"Mr. Fuel #718","2.359"
"Mr. Fuel #719","2.299*"
"Flying J #720","2.449"
"Mr. Fuel #721","2.449*"
"Flying J #722","2.459"
"Flying J #723","2.499"
"Flying J #724","2.499"
"Flying J #725","2.499"
"Flying J #726","2.259"
"Flying J #727","2.559"
"Flying J #728","2.499"
"Flying J #729","2.499"
"Flying J #730","2.499"
"Mr. Fuel #731","2.329*"
"Mr. Fuel #732","2.529"
"Flying J #733","2.339"
"Flying J #734","2.359"
"Flying J #735","2.359"
"Flying J #736","2.699"
"Flying J #737","2.399"
"Flying J #738","2.499"
"Flying J #739","2.199"
"Flying J #740","2.399"
"Flying J #741","2.559"
"Flying J #742","2.799"
"Flying J #743","2.799"
"Flying J #744","2.699"
"Flying J #746","2.799"
"Flying J #747","2.799"
"Flying J #748","2.599"
"Flying J #749","2.599"
"Flying J #750","2.499"
"Flying J #752","2.499"
"Mr. Fuel #753","2.589"
"Flying J #754","2.499"
"Flying J #756","2.499"
"Flying J #758","2.799"
"Flying J #759","2.659"
"Flying J #760","3.059"
"Flying J #761","2.859"
"Flying J #762","2.799"
"Flying J #763","2.799"
"Flying J #764","2.799"
"Flying J #765","2.899"
"Flying J #768","2.339"
"Flying J #770","2.839"
"Flying J #772","2.799"
"Flying J #773","2.589"
"Flying J #774","2.759"
"Pilot Travel Center #775","2.839"
"Flying J #777","2.999"
"Pilot Thomas Cardlock #781","2.599"
"Flying J #784","2.859"
"Flying J #785","1.109"
"Flying J #786","1.109"
"Flying J #788","1.029"
"Flying J #789","1.079"
"Flying J #790","1.129"
"Flying J #791","1.039"
"Flying J Fuel Stop #792","1.129"
"Flying J Fuel Stop #793","1.109"
"Flying J Fuel Stop #795","1.109"
"Flying J Fuel Stop #796","1.109"
"Flying J Fuel Stop #797","1.129"
"Flying J Fuel Stop #798","1.239"
"Flying J CAN Dealer #799","1.169"
"Flying J Cardlock #801","1.159"
"Flying J Cardlock #802","1.239"
"Flying J Fuel Stop #803","1.029"
"Flying J Fuel Stop #804","1.029"
"Flying J Fuel Stop #805","1.109"
"Flying J Fuel Stop #806","1.209"
"Flying J Fuel Stop #807","1.099"
"Flying J CAN Dealer #808","1.199"
"Flying J CAN Dealer #809","1.199"
"Flying J CAN Dealer #810","1.199"
"Flying J Fuel Stop #811","1.039"
"Flying J Cardlock #813","1.129"
"Flying J Cardlock #814","1.109"
"Flying J Cardlock #815","1.109"
"Flying J Cardlock #816","1.109"
"Flying J Cardlock #817","1.109"
"Flying J Cardlock #818","1.109"
"Flying J Cardlock #819","1.119"
"Flying J Cardlock #820","1.129"
"Flying J Cardlock #821","1.129"
"Flying J Cardlock #822","1.129"
"Flying J Fuel Stop #824","1.109"
"Flying J Cardlock #825","1.139"
"Flying J Cardlock #826","1.129"
"Flying J Cardlock #827","1.169"
"Flying J Cardlock #828","1.159"
"Flying J Cardlock #829","1.159"
"Flying J Cardlock #830","1.189"
"Flying J Cardlock #832","1.239"
"Flying J CAN Dealer #833","1.129"
"Flying J Cardlock #835","1.029"
"Flying J Cardlock #837","1.189"
"Flying J Cardlock #842","1.039"
"Flying J Cardlock #844","1.079"
"Flying J CAN Dealer #845","1.099"
"Flying J CAN Dealer #846","1.109"
"Flying J CAN Dealer #848","1.109"
"Flying J CAN Dealer #850","1.109"
"Flying J #852","1.129"
"Flying J #853","1.169"
"Flying J #860","1.149"
"Flying J #861","1.169"
"Flying J #862","1.099"
"Flying J Fuel Stop #863","1.039"
"Flying J CAN Dealer #864","1.059"
"Flying J CAN Dealer #865","1.109"
"Flying J CAN Dealer #866","1.179"
"Flying J Fuel Stop #869","1.109"
"Pilot Dealer #871","3.059"
"Pilot Dealer #873","2.799"
"Pilot Dealer #874","2.799"
"Flying J #875","2.859"
"Flying J #876","2.599"
"Pilot Dealer #879","3.059"
"Pilot Dealer #880","2.659"
"Pilot Dealer #881","2.379*"
"Pilot Dealer #882","2.859"
"The Pantry #883","2.259"
"The Pantry #884","2.359"
"The Pantry #885","2.599"
"Road Ranger #886","2.499"
"Pilot Dealer #887","2.499"
"Pilot Dealer #888","2.499"
"Flying J US Dealer #889","2.499"
"Pilot Dealer #890","2.599"
"Pilot Dealer #891","2.699"
"Pilot Dealer #892","2.759"
"Pilot Dealer #893","2.429"
"Pilot Dealer #894","2.659"
"Flying J US Dealer #895","2.679"
"Pilot Dealer #896","2.799"
"Pilot Dealer #897","2.799"
"Pilot Dealer #898","2.559"
"Pilot Dealer #899","2.459"
"Pilot Dealer #900","2.599"
"Pilot Travel Center #901","2.459"
"Bosselman #902","2.459"
"Pilot Travel Center #903","2.459"
"Flying J #904","2.429"
"Town Pump #905","2.589"
"Town Pump #906","2.589"
"Town Pump #907","2.589"
"Town Pump #908","2.589"
"Town Pump #909","2.589"
"Town Pump #910","2.589"
"Town Pump #911","2.569"
"Pilot Travel Center #912","2.459"
"Flying J #913","2.399"
"Town Pump #914","2.589"
"Town Pump #915","2.589"
"Town Pump #916","2.589"
"Town Pump #917","2.589"
"Pilot Travel Center #918","2.759"
"Pilot Travel Center #920","2.459"
"Town Pump #922","2.639"
"Town Pump #923","2.589"
"Town Pump #924","2.589"
"Town Pump #925","2.589"
"Flying J Franchise #931","2.749"
"Flying J Franchise #932","2.399"
"Flying J Franchise #934","2.459*"
"Flying J DLR - Broadway #963","3.169"
"Flying J DLR - Broadway #964","2.599"
"Flying J DLR - Broadway #965","3.149"
"Flying J DLR - Broadway #966","2.859"
"Flying J DLR - Broadway #967","3.169"
"Flying J DLR - Broadway #968","2.599"
"Flying J DLR - Broadway #970","3.149"
"Pilot Travel Center #1001","2.759"
"Pilot Travel Center #1002","2.399"
"Pilot Travel Center #1003","2.459"
"Pilot Travel Center #1004","2.359"
"Flying J #1005","2.699"
"Pilot Travel Center #1006","2.399"
"Pilot Travel Center #1012","2.699"
"Town Pump #1013","2.589"
"Town Pump #1015","2.499"
"Pilot Travel Center #1019","2.959"
"Mr. Fuel #1020","2.299*"
"Pilot Travel Center #1021","2.699"
"Pilot Travel Center #1023","2.399"
"Pilot Travel Center #1024","2.599"
"Flying J #1025","2.459"
"Pilot Travel Center #1026","2.639"
"Pilot Travel Center #1027","2.499"
"Pilot Travel Center #1028","2.499"
"Pilot Travel Center #1030","2.439"
"Flying J #1033","2.659"
"Pilot Travel Center #1041","2.399"
"Pilot Travel Center #1042","2.439"
"Flying J #1043","2.899"
"Pilot Travel Center #1046","2.499"
"Pilot Travel Center #1047","2.639"
"Pilot Travel Center #1051","2.459"
"Pilot Travel Center #1054","2.399"
"Flying J #1057","2.339"
"Pilot Dealer #1058","2.539"
"Pilot Travel Center #1059","2.399"
"Flying J #1061","2.359"
"Pilot Travel Center #1063","2.639"
"Pilot Travel Center #1070","2.529"
"Flying J #1080","2.759"
"Pilot Travel Center #1082","2.259"
"Pilot Travel Center #1083","2.399"
"Flying J #1086","2.379*"
"Pilot Travel Center #7937","2.639"
"Pilot Travel Center #7971","2.399"
"Pilot Travel Center #7976","2.699"
"Pilot Travel Center #7983","2.359"
"Pilot Travel Center #7996","2.559"
"Pilot Travel Center #1549","2.529"
"Pilot Travel Center #1550","2.559"
"Pilot Travel Center #1577","2.459"
"Pilot Thomas Cardlock #8601","2.759"
"Pilot Thomas Cardlock #8604","2.759"
"Pilot Thomas Cardlock #8605","2.759"
"Pilot Thomas Cardlock #8616","2.699"
"Pilot Thomas Cardlock #8621","2.699"
"Pilot Thomas Cardlock #8624","2.699"
"Pilot Thomas Cardlock #8625","2.699"
"Pilot Thomas Cardlock #8628","2.699"
"Pilot Thomas Cardlock #8630","2.699"
"Pilot Thomas Cardlock #8658","2.759"
